{
	"count": 38,
	"next": "https://hub.docker.com/v2/repositories/tobilg/?page=2",
	"previous": null,
	"results": [{
		"user": "tobilg",
		"name": "marathon-slack",
		"namespace": "tobilg",
		"repository_type": "image",
		"status": 1,
		"description": "Listen to Marathon's Event Bus and send selected event types to a Slack WebHook",
		"is_private": false,
		"is_automated": true,
		"can_edit": false,
		"star_count": 2,
		"pull_count": 378113,
		"last_updated": "2018-01-29T17:06:34.571816Z",
		"is_migrated": true
	}, {
		"user": "tobilg",
		"name": "mesos-dns",
		"namespace": "tobilg",
		"repository_type": null,
		"status": 1,
		"description": "A Mesos DNS Docker image",
		"is_private": false,
		"is_automated": true,
		"can_edit": false,
		"star_count": 4,
		"pull_count": 210498,
		"last_updated": "2016-10-17T07:26:36.492437Z",
		"is_migrated": true
	}, {
		"user": "tobilg",
		"name": "expose-socket",
		"namespace": "tobilg",
		"repository_type": "image",
		"status": 1,
		"description": "Exposes the Docker socket",
		"is_private": false,
		"is_automated": true,
		"can_edit": false,
		"star_count": 0,
		"pull_count": 191896,
		"last_updated": "2017-05-05T08:19:31.135493Z",
		"is_migrated": true
	}, {
		"user": "tobilg",
		"name": "zookeeper-webui",
		"namespace": "tobilg",
		"repository_type": null,
		"status": 1,
		"description": "Docker image for using `zk-web` as ZooKeeper Web UI",
		"is_private": false,
		"is_automated": true,
		"can_edit": false,
		"star_count": 11,
		"pull_count": 155601,
		"last_updated": "2016-10-27T08:05:48.491673Z",
		"is_migrated": true
	}, {
		"user": "tobilg",
		"name": "mini-webserver",
		"namespace": "tobilg",
		"repository_type": "image",
		"status": 1,
		"description": "Provides a server (via Express.js) to expose static files from the Docker host via HTTP",
		"is_private": false,
		"is_automated": true,
		"can_edit": false,
		"star_count": 2,
		"pull_count": 130075,
		"last_updated": "2017-06-13T12:28:26.787927Z",
		"is_migrated": true
	}, {
		"user": "tobilg",
		"name": "minio-dcos",
		"namespace": "tobilg",
		"repository_type": "image",
		"status": 1,
		"description": "minio on DC/OS",
		"is_private": false,
		"is_automated": true,
		"can_edit": false,
		"star_count": 0,
		"pull_count": 83191,
		"last_updated": "2017-06-20T06:36:59.293300Z",
		"is_migrated": true
	}, {
		"user": "tobilg",
		"name": "gitlab-ci-runner-marathon",
		"namespace": "tobilg",
		"repository_type": "image",
		"status": 1,
		"description": "A customized Docker image for running scalable GitLab CI runners on Marathon",
		"is_private": false,
		"is_automated": true,
		"can_edit": false,
		"star_count": 1,
		"pull_count": 32323,
		"last_updated": "2017-10-08T09:42:49.287768Z",
		"is_migrated": true
	}, {
		"user": "tobilg",
		"name": "mongodb-marathon",
		"namespace": "tobilg",
		"repository_type": "image",
		"status": 1,
		"description": "A Docker image to start a dynamic MongoDB 3.0.x replica set via Mesos/Marathon",
		"is_private": false,
		"is_automated": true,
		"can_edit": false,
		"star_count": 4,
		"pull_count": 23591,
		"last_updated": "2017-01-23T18:56:20.815362Z",
		"is_migrated": true
	}, {
		"user": "tobilg",
		"name": "zookeeper",
		"namespace": "tobilg",
		"repository_type": null,
		"status": 1,
		"description": "",
		"is_private": false,
		"is_automated": true,
		"can_edit": false,
		"star_count": 0,
		"pull_count": 17507,
		"last_updated": "2016-04-18T13:35:23.409740Z",
		"is_migrated": true
	}, {
		"user": "tobilg",
		"name": "clair-dcos",
		"namespace": "tobilg",
		"repository_type": "image",
		"status": 1,
		"description": "A Docker image for running Clair on DC/OS",
		"is_private": false,
		"is_automated": true,
		"can_edit": false,
		"star_count": 0,
		"pull_count": 12409,
		"last_updated": "2018-09-07T18:01:41.378189Z",
		"is_migrated": true
	}]
}